@relation page_id_string
@attribute document_name string
@attribute document_content string
@data
inicio, "YouTubeInformaciónPrensaDerechos de autorContactarCreadoresPublicidadDesarrolladoresTérminosPrivacidadPolítica y seguridadCómo funciona YouTubeProbar funciones nuevas&copy; 2021 Google LLC YouTube, una empresa de Google"
creadores, "Creators | YouTube Learn and Connect Academy Space NextUp Awards Creators for Change Support and Guidance Help Center Help Forum Partner Managers Learn and Connect Academy Space NextUp Awards Creators for Change Support and Guidance Help Center Help Forum Partner Managers We’re reimagining YouTube Spaces to reach more creators globally. Visit the blog to read more. Welcome Take a look around and explore everything you need to get inspired, engage, and thrive. First time here? Check out the video Get the Creator Monthly Highlights from each month so you never miss a beat. All the Creator News Sign up Connect About YouTube About Blog Jobs Press YouTube Culture &amp; Trends How YouTube Works Products YouTube Go YouTube Kids YouTube Music YouTube Originals YouTube Premium YouTube Studio YouTube TV For Business Advertising Developers For Creators Artists Creators Creator Academy Creating for Kids Creator Research Creator Services Directory YouTube NextUp YouTube Space YouTube VR Our Commitments Creators for Change CSAI Match Social Impact About YouTube Products For Business For Creators Our Commitments About Blog Jobs Press YouTube Culture &amp; Trends How YouTube Works YouTube Go YouTube Kids YouTube Music YouTube Originals YouTube Premium YouTube Studio YouTube TV Advertising Developers Artists Creators Creator Academy Creating for Kids Creator Research Creator Services Directory YouTube NextUp YouTube Space YouTube VR Creators for Change CSAI Match Social Impact Policies &amp; Safety Copyright Brand Guidelines Privacy Terms Help English العربية Deutsch Ελληνικά English (United Kingdom) español (Latinoamérica) español français Bahasa Indonesia italiano 日本語 한국어 Nederlands polski português (Brasil) português (Portugal) română русский svenska ไทย Türkçe Tiếng Việt 中文 (繁體)"
anuncios, "YouTube Advertising - Online Video Advertising Campaigns How it works Creating an Ad Driving results Pricing Success stories Resources TALK TO US Start now Home How it works Creating an Ad Driving results Pricing Success stories Resources TALK TO US Start now COVID-19: Resources to help your business manage through uncertainty. Learn more Be seen where everyone is watching With YouTube ads, reach potential customers and have them take action when they watch or search for videos on YouTube – and only pay when they show interest. Already have a video? Start now No video? No problem. Learn more Get $100 free credit when you spend $50 on video ads Get offer code Thank You. You will receive your coupon by email within one minute. Create your first ad now. You can apply your coupon after you start. Start now Email This field is required Country This field is required Select one United States Canada Australia New Zealand Ireland South Korea Brazil Mexico France Italy Germany Spain Japan Colombia Poland Russia Argentina Google may contact me occasionally with Google Ads tips and promotionsTo continue, please select this box Please complete the captcha above Please connect to the internet and submit your entry. There was an error processing the request. Please try again later. Please enable javascript to get the offer code. In an average month, 18+ year olds in the United States spend more time watching YouTube than any television network. 1 On mobile alone, more 18- to 49-year-olds watch YouTube during prime time in the United States than they do the top 10 prime-time shows combined. 2 Over the last two years, the number of small- and medium-sized businesses advertising on YouTube has doubled. 3 See how a small-town quilt shop grew into a global business See how a small-town quilt shop grew into a global business “My son and daughter came up with an idea to help me build a business around my love of quilting. I had zero video advertising experience. But with YouTube, I was able to reach over 1 million potential customers and make over 14,000 online sales.” Jenny Doan, Founder, Missouri Star Quilt Company Watch the video Who you’ll reach Reach the people who matter most YouTube Ads can help you connect with people who are interested in what you have to offer. From sports fans to fashionistas, and everyone in between, people come to YouTube for the content they love. With Find My Audience, it’s easy to get a deeper understanding of your most valuable customers – their interests, their habits, and what they’re planning to purchase. Discover your audience on YouTube&nbsp; What it costs Only pay when they watch your video ad You only pay when someone chooses to watch at least 30 seconds or clicks on your TrueView ad. Get the most from your budget&nbsp; How you’ll measure results See how you’re doing Get real-time insights about how people are responding to your video ads, so you know where to make adjustments. Understand your results&nbsp; 11,205 28 25 15 Let’s get started No video? No problem. See how to create a compelling advertising video with your phone or a professional. Make a video ad&nbsp; Ready to advertise? Good news. If you have a video, get it up and running on YouTube today. Start now&nbsp; We’re here to help. Get help setting up your account from a YouTube Advertising expert when you spend $10 per day. Talk to us 1 Source: Google-commissioned Nielsen study, U.S, 2016. 2 Source: Google-commissioned Nielsen study, U.S, 2016. 3 Source: YouTube Global Internal Data, Global, 2016. Ready to run your ad? Start now Connect About YouTube About Blog Jobs Press YouTube Culture & Trends How YouTube Works Products YouTube Go YouTube Kids YouTube Music YouTube Originals YouTube Premium YouTube Studio YouTube TV For Business Advertising Developers For Creators Artists Creators Creator Academy Creating for Kids Creator Research Creator Services Directory YouTube NextUp YouTube Space YouTube VR Our Commitments Creators for Change CSAI Match Social Impact About YouTube Products For Business For Creators Our Commitments About Blog Jobs Press YouTube Culture & Trends How YouTube Works YouTube Go YouTube Kids YouTube Music YouTube Originals YouTube Premium YouTube Studio YouTube TV Advertising Developers Artists Creators Creator Academy Creating for Kids Creator Research Creator Services Directory YouTube NextUp YouTube Space YouTube VR Creators for Change CSAI Match Social Impact Terms and conditions for this offer: In the below terms, Google Ads may mean Google Ads or Google Ads Express, as appropriate. Offer available to customers with a billing address in the United States only. One promotional code per advertiser. To activate this offer: Enter the promotional code in your account before December 31 2020. In order to participate in this offer, you must enter the code within 14 days of your first ad impression being served from your first Google Ads account. To earn the credit: After entering the code, your advertising campaigns must accrue costs of at least $25, excluding any taxes, within 30 days. Making a payment of $25 is not sufficient. The tracking of advertising costs towards $25 begins after you've entered the code. Once 2 and 3 are completed, the credit will typically be applied within 5 days to the Billing Summary of your account. Credits apply to future advertising costs only. Credits cannot be applied to costs accrued before the code was entered. You won’t receive a notification once your credit is used up and any additional advertising costs will be charged to your form of payment. If you don’t want to continue advertising, you can pause or delete your campaigns at any time. Your account must be successfully billed by Google Ads and remain in good standing in order to qualify for the promotional credit. See full terms and conditions here Policies & Safety Copyright Brand Guidelines Privacy Terms Help English (United States) English العربية dansk Deutsch English (United Kingdom) español (Latinoamérica) español suomi français italiano 日本語 한국어 Nederlands norsk bokmål (Norge) polski português (Brasil) русский svenska Türkçe Offline Online This page is ready to work offline Updated content available Refresh Find a video ad expert near you United States 1-877-687-9209 Canada 1-800-852-9990 Additional countries: Australia 1800 049 754 China 400 919 8341 Hong Kong 800 906 812 India 1800 419 6349 Indonesia 1803 852 8660 Malaysia 1800 817 756 New Zealand 0800 759 608 Singapore 1800 521 8754 South Africa 800 167 348 Philippines 1800 1110 1298"
contacto, "ContactarESAcerca de YouTubeNormas de la comunidadContactarEmpleoContactar Si necesitas ayuda, consulta el Centro de ayuda para obtener respuestas a muchas preguntas frecuentes sobre cómo crear una cuenta, cómo reproducir y subir vídeos y sobre cómo mantener tu canal. Si no encuentras lo que buscas en el Centro de ayuda, te recomendamos que consultes el foro de ayuda de la comunidad. Si tienes un problema, consulta la página Problemas actuales del sitio para ver una lista de problemas conocidos que estamos intentando solucionar. Relaciones con los medios de comunicación Sala de prensa Aquí encontrarás información de contacto de distintos medios, comunicados de prensa, material adicional, preguntas frecuentes y la cronología interactiva de YouTube. Programa para Partners Si te interesa participar en el Programa para Partners de YouTube, consulta nuestra página de información. Publicidad YouTube permite incluir todo tipo de campañas publicitarias en la comunidad de vídeos online más grande del mundo, tanto si proceden de uno de los 100 anunciantes principales de la revista AdAge como de un pequeño anunciante de ámbito local. Más información básica sobre cómo anunciarte en YouTube Seguridad Incidencias de uso inadecuado En el caso de incidencias de uso inadecuado, ponte en contacto con nosotros a través de la página del Centro de políticas y usos inadecuados. Problemas de seguridad del sitio Si quieres denunciar un problema de seguridad relacionado con YouTube, accede a esta página. Legal Incidencias de copyright Si eres el propietario de los derechos de autor de un vídeo y crees que este se ha subido sin tu permiso, sigue estas instrucciones para enviar una notificación de infracción de derechos de autor. Programa Content ID Si estás interesado en participar en Content ID, consulta la página Content ID. Contenido inapropiado Para informar de un vídeo inadecuado en YouTube, haz clic en el enlace Denunciar que aparece debajo del vídeo. Para obtener información sobre la política, consulta los Términos del Servicio. Información de contacto adicional Desarrolladores Si eres desarrollador o estás interesado en nuestras API, accede al espacio para desarrolladores. Envía contenido adicional a Google Conoce todas las opciones para distribuir tu contenido en Google de forma gratuita a través de gadgets y de servicios de Google, como Google Shopping, Google Places y Google Libros. Nuestra direcciónGoogle LLC, D/B/A YouTube 901 Cherry Ave. San Bruno, CA 94066 USA Fax: +1 650-253-0001 Email general de contacto: generalinfo@youtube.com FEIN: 20-8051612 Número de registro corporativo en el estado de Delaware: 4248149"
copyright, "Políticas de YouTube sobre uso legítimo y derechos de autor - Cómo funciona YouTube Nuestros compromisos Gestionar el contenido dañino ¿Cómo mantiene YouTube el contenido dañino fuera de la plataforma? Plantar cara al odio ¿Cómo protege YouTube a la comunidad frente al odio y el acoso? Luchar contra la información falsa ¿Cómo lucha YouTube contra la información falsa? Restringir el contenido extremista ¿Cómo impide YouTube la radicalización? Luchamos por la integridad política ¿Cómo apoya YouTube la integridad electoral y la participación de la ciudadanía en asuntos públicos? Evitar los sesgos ¿Cómo evita YouTube los sesgos? Fomentar la seguridad infantil ¿Cómo protege YouTube a los niños que usan la plataforma? Proteger los datos de los usuarios ¿Cómo mantiene YouTube la privacidad del usuario? Proteger los derechos de autor ¿Cómo se protege en YouTube el contenido con derechos de autor? Reparto de ingresos ¿Cómo gana dinero YouTube? Fomentar el bienestar digital ¿Cómo fomenta YouTube el bienestar digital de los usuarios? Reaccionar ante el COVID‑19 ¿Cómo está apoyando YouTube a los usuarios durante la crisis del COVID‑19? Características del producto Búsqueda de YouTube Cómo puede ayudarte nuestra herramienta de búsqueda a encontrar el contenido que más te interesa Vídeos recomendados Cómo elegimos el contenido que creemos que puede interesarte Noticias e información Cómo proporcionamos contexto en los resultados de búsqueda y los vídeos Monetización para creadores Cómo ganan dinero los creadores en YouTube YouTube Live Cómo puedes interactuar con tu comunidad en tiempo real con los estrenos y las emisiones en directo Configuración del usuario Controles de privacidad Cómo protegemos tu información y qué puedes hacer para controlar tu privacidad Configuración de anuncios Cómo funcionan los anuncios en la plataforma y cómo los personalizamos Control parental Cómo puedes crear una experiencia ideal para tu familia Reproducción automática Reproducción automática: cómo funciona y cómo desactivarla Normas y políticas Información general sobre políticas Cómo ayudan nuestras normas y políticas a proteger a los usuarios Normas de la Comunidad Cómo definimos los límites de lo que está permitido en YouTube Derechos de autor Cómo ayudamos a los creadores a gestionar su contenido de manera responsable Políticas de monetización Cómo pueden monetizar su contenido los creadores que forman parte del Programa para Partners de YouTube Retiradas de contenido por motivos legales Cómo tratamos el contenido que infringe las leyes locales Progreso y repercusiones Progreso en la gestión del contenido dañino Progreso en nuestras iniciativas de responsabilidad Nuestro impacto Cómo transforman los emprendedores creativos sus vidas y comunidades Cultura y tendencias Hacerse una mejor idea del camino que tomará la próxima generación de creadores y artistas Nuestros compromisos Gestionar el contenido dañino Plantar cara al odio Luchar contra la información falsa Restringir el contenido extremista Luchamos por la integridad política Evitar los sesgos Fomentar la seguridad infantil Proteger los datos de los usuarios Proteger los derechos de autor Reparto de ingresos Fomentar el bienestar digital Reaccionar ante el COVID‑19 Características del producto Búsqueda de YouTube Vídeos recomendados Noticias e información Monetización para creadores YouTube Live Configuración del usuario Controles de privacidad Configuración de anuncios Control parental Reproducción automática Normas y políticas Información general sobre políticas Normas de la Comunidad Derechos de autor Políticas de monetización Retiradas de contenido por motivos legales Progreso y repercusiones Progreso en la gestión del contenido dañino Nuestro impacto Cultura y tendencias Normas y políticas Derechos de autor Descripción general Uso legítimo Presentar reclamaciones Aplicar medidas de cumplimiento de derechos de autor La primera regla de los derechos de autor Los creadores deben subir únicamente vídeos de su propia cosecha, salvo que estén autorizados a usar contenido de terceros. Es decir, no deben subir vídeos que no hayan creado ellos mismos ni utilizar contenido cuyos derechos de autor pertenezcan a otra persona si no cuentan con la autorización pertinente. Esto incluye pistas musicales, fragmentos de programas protegidos por derechos de autor y vídeos creados por otros usuarios. ¿Qué es el uso legítimo? El uso legítimo es una ley estadounidense que estipula que, en determinadas circunstancias, es posible reutilizar material protegido por derechos de autor sin que se requiera el permiso del titular de dichos derechos. Por eso, el uso legítimo se debe determinar caso a caso. Además, cada país tiene sus propias normas para regular cuándo está permitido usar material protegido por derechos de autor sin que lo autorice el titular de dichos derechos. En Estados Unidos, utilizar contenido con fines educativos, investigativos o informativos, así como para comentarlo o criticarlo, puede considerarse uso legítimo, pero depende de la situación. Para ponérselo más fácil a los creadores, hemos creado la Biblioteca de audio de YouTube, donde pueden encontrar efectos sonoros y música de alta calidad que pueden reutilizar gratis y sin preocupaciones. Recursos Más información sobre el uso legítimo ¿Cómo pueden los titulares de los derechos presentar reclamaciones de derechos de autor? Gracias a las herramientas de gestión de derechos de autor de YouTube, a las que todos los usuarios tienen acceso, los titulares de los derechos pueden controlar sus obras protegidas por derechos de autor en YouTube. Trabajamos codo con codo con ellos para recomendarles las funciones que más se ajustan a la cantidad de contenido protegido por derechos de autor que tienen en YouTube y a los recursos que dedican a gestionar su contenido online de manera responsable. Gracias a nuestro conjunto de herramientas de gestión de derechos de autor, los titulares de derechos tienen varios métodos para presentar una reclamación de derechos de autor. Formulario web Si quieres que se retire una copia que utiliza contenido protegido por derechos de autor sin autorización, lo más fácil es presentar manualmente una notificación de derechos de autor a través de nuestro formulario web de la ley estadounidense de protección de los derechos de autor (DMCA). Esta es la herramienta más adecuada para la mayoría de los usuarios: está disponible para todos y se ha traducido a todos los idiomas. Copyright Match Tool La herramienta Copyright Match Tool aprovecha la tecnología de detección de coincidencias de Content ID para buscar vídeos que se hayan vuelto a subir a YouTube. Más de un millón y medio de canales tienen acceso a esta herramienta que permite identificar copias prácticamente íntegras de los vídeos originales de un creador que se hayan subido a otro canal de YouTube. Además, ofrece al creador la posibilidad de elegir si prefiere solicitar la retirada del vídeo, enviar un mensaje al usuario que lo subió o archivar la coincidencia sin tomar ninguna otra medida. Todos los usuarios con un historial positivo de solicitudes presentadas mediante nuestro formulario web de la DMCA que hayan dado lugar a la retirada por infracción de derechos de autor pueden pedir acceso a esta herramienta a través de nuestro formulario público. Content ID Content ID es la solución que ofrecemos a los usuarios que deben llevar a cabo tareas de gestión de derechos más complejas. Es nuestro sistema de huella digital al que los titulares de derechos pueden subir el contenido del que tienen los derechos exclusivos como archivos de referencia para así poder comprobar si algún vídeo de YouTube coincide con el material original. Cada vez que un usuario sube contenido a la plataforma, Content ID lo coteja con su base de datos de vídeos. Cuando se encuentra una coincidencia, se toman las medidas correspondientes según las reglas o políticas que haya definido el propietario del contenido: Bloquear la visualización del vídeo. En ese caso, el creador no recibiría ninguna falta por incumplimiento de derechos de autor. Monetizar el vídeo con anuncios y, en algunos casos, compartir los ingresos con el usuario que lo haya subido. * Hacer un seguimiento de las estadísticas de audiencia del vídeo. En estos casos, normalmente, el titular de los derechos no necesita presentar una solicitud de retirada por infracción de derechos de autor, sino que opta por mantener el vídeo en cuestión en la plataforma para monetizarlo con anuncios. Recursos Más información sobre las herramientas de gestión de derechos de autor de YouTube Más información sobre las faltas por incumplimiento de derechos de autor ¿Qué medidas toma YouTube cuando se infringen los derechos de autor? Cuando un titular de derechos de autor presenta una reclamación válida según la DMCA mediante nuestro formulario web, nos encargamos de retirar el vídeo y aplicar una falta por incumplimiento de derechos de autor. Si un usuario recibe tres faltas por incumplimiento de derechos de autor en el plazo de 90 días, cancelamos su cuenta y todos los canales asociados. También ponemos a disposición de los creadores distintas herramientas para resolver las faltas por incumplimiento de derechos de autor. Por ejemplo, pueden esperar a que venza a los 90 días, solicitar una retracción o presentar una contranotificación. Content ID funciona de otra manera. Cuando una subida nueva coincide con algún archivo de referencia, se crea una reclamación. Según las preferencias del propietario de Content ID, aplicamos una política para hacer un seguimiento, monetizar el contenido o bloquearlo, pero en ningún caso se emitiría una falta por incumplimiento de derechos de autor. Recursos Más información sobre las faltas por incumplimiento de derechos de autor Retirar una reclamación de infracción de derechos de autor Enviar una contranotificación Artículos relacionados Normas de la Comunidad Más información Políticas de monetización"
indexabout, "About YouTube - YouTube YouTube Experiences Policies and Safety Copyright Brand Resources Press YouTube Experiences Policies and Safety Copyright Brand Resources Press About YouTube Our mission is to give everyone a voice and show them the world. We believe that everyone deserves to have a voice, and that the world is a better place when we listen, share and build community through our stories. Our values are based on four essential freedoms that define who we are. Freedom of Expression We believe people should be able to speak freely, share opinions, foster open dialogue, and that creative freedom leads to new voices, formats and possibilities. Freedom of Information We believe everyone should have easy, open access to information and that video is a powerful force for education, building understanding, and documenting world events, big and small. Freedom of Opportunity We believe everyone should have a chance to be discovered, build a business and succeed on their own terms, and that people—not gatekeepers—decide what’s popular. Freedom to Belong We believe everyone should be able to find communities of support, break down barriers, transcend borders and come together around shared interests and passions. The latest news from YouTube Visit the YouTube Blog Trending topics and videos on YouTube Visit the Trends Blog Connect About YouTube About Blog Jobs Press YouTube Culture &amp; Trends How YouTube Works Products YouTube Go YouTube Kids YouTube Music YouTube Originals YouTube Premium YouTube Studio YouTube TV For Business Advertising Developers For Creators Artists Creators Creator Academy Creating for Kids Creator Research Creator Services Directory YouTube NextUp YouTube Space YouTube VR Our Commitments Creators for Change CSAI Match Social Impact About YouTube Products For Business For Creators Our Commitments About Blog Jobs Press YouTube Culture &amp; Trends How YouTube Works YouTube Go YouTube Kids YouTube Music YouTube Originals YouTube Premium YouTube Studio YouTube TV Advertising Developers Artists Creators Creator Academy Creating for Kids Creator Research Creator Services Directory YouTube NextUp YouTube Space YouTube VR Creators for Change CSAI Match Social Impact Policies &amp; Safety Copyright Brand Guidelines Privacy Terms Help English العربية български বাংলা català čeština dansk Deutsch Ελληνικά English (United Kingdom) español (Latinoamérica) español eesti euskara فارسی suomi Filipino français (Canada) français galego ગુજરાતી हिन्दी hrvatski magyar Bahasa Indonesia íslenska italiano עברית (ישראל) 日本語 한국어 lietuvių latviešu മലയാളം मराठी Bahasa Melayu Nederlands norsk bokmål (Norge) polski português (Brasil) português (Portugal) română русский slovenčina slovenščina српски svenska தமிழ் తెలుగు ไทย Türkçe українська Tiếng Việt 中文 (简体) 中文 中文 (繁體)"
politicas, "Políticas y Normas de la Comunidad de YouTube - Cómo funciona YouTube Nuestros compromisos Gestionar el contenido dañino ¿Cómo mantiene YouTube el contenido dañino fuera de la plataforma? Plantar cara al odio ¿Cómo protege YouTube a la comunidad frente al odio y el acoso? Luchar contra la información falsa ¿Cómo lucha YouTube contra la información falsa? Restringir el contenido extremista ¿Cómo impide YouTube la radicalización? Luchamos por la integridad política ¿Cómo apoya YouTube la integridad electoral y la participación de la ciudadanía en asuntos públicos? Evitar los sesgos ¿Cómo evita YouTube los sesgos? Fomentar la seguridad infantil ¿Cómo protege YouTube a los niños que usan la plataforma? Proteger los datos de los usuarios ¿Cómo mantiene YouTube la privacidad del usuario? Proteger los derechos de autor ¿Cómo se protege en YouTube el contenido con derechos de autor? Reparto de ingresos ¿Cómo gana dinero YouTube? Fomentar el bienestar digital ¿Cómo fomenta YouTube el bienestar digital de los usuarios? Reaccionar ante el COVID‑19 ¿Cómo está apoyando YouTube a los usuarios durante la crisis del COVID‑19? Características del producto Búsqueda de YouTube Cómo puede ayudarte nuestra herramienta de búsqueda a encontrar el contenido que más te interesa Vídeos recomendados Cómo elegimos el contenido que creemos que puede interesarte Noticias e información Cómo proporcionamos contexto en los resultados de búsqueda y los vídeos Monetización para creadores Cómo ganan dinero los creadores en YouTube YouTube Live Cómo puedes interactuar con tu comunidad en tiempo real con los estrenos y las emisiones en directo Configuración del usuario Controles de privacidad Cómo protegemos tu información y qué puedes hacer para controlar tu privacidad Configuración de anuncios Cómo funcionan los anuncios en la plataforma y cómo los personalizamos Control parental Cómo puedes crear una experiencia ideal para tu familia Reproducción automática Reproducción automática: cómo funciona y cómo desactivarla Normas y políticas Información general sobre políticas Cómo ayudan nuestras normas y políticas a proteger a los usuarios Normas de la Comunidad Cómo definimos los límites de lo que está permitido en YouTube Derechos de autor Cómo ayudamos a los creadores a gestionar su contenido de manera responsable Políticas de monetización Cómo pueden monetizar su contenido los creadores que forman parte del Programa para Partners de YouTube Retiradas de contenido por motivos legales Cómo tratamos el contenido que infringe las leyes locales Progreso y repercusiones Progreso en la gestión del contenido dañino Progreso en nuestras iniciativas de responsabilidad Nuestro impacto Cómo transforman los emprendedores creativos sus vidas y comunidades Cultura y tendencias Hacerse una mejor idea del camino que tomará la próxima generación de creadores y artistas Nuestros compromisos Gestionar el contenido dañino Plantar cara al odio Luchar contra la información falsa Restringir el contenido extremista Luchamos por la integridad política Evitar los sesgos Fomentar la seguridad infantil Proteger los datos de los usuarios Proteger los derechos de autor Reparto de ingresos Fomentar el bienestar digital Reaccionar ante el COVID‑19 Características del producto Búsqueda de YouTube Vídeos recomendados Noticias e información Monetización para creadores YouTube Live Configuración del usuario Controles de privacidad Configuración de anuncios Control parental Reproducción automática Normas y políticas Información general sobre políticas Normas de la Comunidad Derechos de autor Políticas de monetización Retiradas de contenido por motivos legales Progreso y repercusiones Progreso en la gestión del contenido dañino Nuestro impacto Cultura y tendencias Normas y políticas Normas de la Comunidad Normas de la Comunidad Desarrollo de políticas Detección de infracciones Denuncia de contenido Aplicación de políticas Información general Hemos diseñado las Normas de la Comunidad para mantener a nuestra comunidad protegida en todo momento. En ellas se definen los límites de lo que está permitido hacer en YouTube, y se aplican a todos los tipos de contenido de nuestra plataforma, incluidos vídeos, comentarios, enlaces y miniaturas. Puedes consultar la lista completa de nuestras Normas de la Comunidad a continuación: Spam y prácticas engañosas Interacciones falsas Suplantación de identidad Enlaces en el contenido Spam, prácticas engañosas y estafas Contenido sensible Seguridad infantil Miniaturas personalizadas Desnudos y contenido sexual Suicidio y autolesión Contenido violento o peligroso Acoso y ciberacoso Contenido dañino o peligroso Incitación al odio Organizaciones criminales violentas Contenido violento o explícito Política sobre desinformación acerca del COVID‑19 Productos regulados Contenido en el que aparecen armas de fuego Venta de productos ilegales o regulados Más Otras políticas ¿Cómo desarrollamos políticas nuevas y actualizamos las que ya hay disponibles? Elaboramos todas nuestras políticas de forma exhaustiva para que resulten coherentes, estén bien fundadas y se puedan aplicar a contenido de todo el mundo. Las desarrollamos en colaboración con numerosos expertos en políticas y sectores externos, así como con los creadores de YouTube. Antes de publicarse, las políticas nuevas se someten a diversas pruebas para que nuestro equipo internacional de revisores de contenido pueda aplicarlas con precisión y coherencia. Se trata de un trabajo ininterrumpido, en el que evaluamos constantemente nuestras políticas para equilibrar de la mejor forma posible nuestros compromisos de mantener a la comunidad de YouTube protegida y dar voz a todas las personas. ¿Cómo identifica YouTube el contenido que infringe las Normas de la Comunidad? Cada minuto, se suben cientos de horas de contenido nuevo a YouTube. Por eso, combinamos el aprendizaje automático con el trabajo manual de nuestros empleados para detectar contenido a gran escala que pueda ser problemático. El aprendizaje automático es óptimo para detectar patrones, lo que nos permite encontrar contenidos similares a otros que ya hemos retirado, incluso antes de que los usuarios los vean. Además, somos conscientes de que la mejor forma de retirar contenido rápidamente es anticiparse a los problemas. Nuestra herramienta Intelligence Desk monitoriza las noticias, las redes sociales y las denuncias por parte de los usuarios para detectar las nuevas tendencias de contenido inadecuado. Como resultado, nuestros equipos pueden abordar estos contenidos antes de que se conviertan en un problema grave. ¿Hay alguna manera de que la comunidad pueda denunciar el contenido dañino? Tenemos la determinación de seguir reduciendo la exposición de los usuarios a vídeos que infringen nuestras políticas y normas y, para ello, hemos asignado las tareas de detección, revisión y retirada de este tipo de contenido a más de 10.000 personas. Sin embargo, la labor de la comunidad de YouTube también es muy importante a la hora de denunciar contenido que considera inadecuado. * Si ves contenido que consideras que infringe las Normas de la Comunidad, puedes usar la función Denunciar para que lo revisemos. * Hemos desarrollado el Programa para Informadores de Confianza de YouTube para ofrecer más herramientas a los organismos públicos, las ONG con experiencia en alguno de los ámbitos políticos disponibles y los usuarios que suelen denunciar contenido con una gran precisión. Quienes participan en este programa se forman sobre las políticas de YouTube y disponen de un canal de comunicación directo con los especialistas de nuestro equipo de Confianza y Seguridad. Los vídeos denunciados por los Informadores de Confianza no se eliminan automáticamente, sino que se someten al mismo proceso de revisión humana que los vídeos denunciados por otros usuarios, pero puede que nuestros equipos agilicen el proceso. ¿Qué medidas toma YouTube respecto al contenido que infringe las Normas de la Comunidad? YouTube toma las medidas necesarias una vez que nuestro equipo de revisores humanos cualificados ha analizado los vídeos denunciados. Los revisores evalúan si el contenido realmente infringe nuestras políticas y protegen el contenido cuya finalidad sea educativa, documental, científica o artística. También retiran el contenido que infringe nuestras políticas y aplican restricciones de edad al que no es adecuado para todos los públicos. Además, nuestros sistemas de denuncia automática nos ayudan a identificar y eliminar el spam automáticamente, así como el contenido que se vuelve a subir y que ya hemos determinado que infringe nuestras políticas. Faltas por incumplimiento de las Normas de la Comunidad Si los revisores determinan que el contenido infringe nuestras Normas de la Comunidad, lo retiramos y enviamos un aviso al creador. La primera vez que un creador infringe las Normas de la Comunidad, le mandamos una advertencia y el canal no recibe ninguna penalización. Después de la primera advertencia, enviamos al canal una falta por incumplimiento de las Normas de la Comunidad y se aplican restricciones temporales a la cuenta. Si un canal recibe tres faltas por incumplimiento en un periodo de 90 días, lo cancelaremos. Los canales que están destinados a infringir nuestras políticas o que presentan un caso grave de uso inadecuado de la plataforma, eluden nuestro sistema de faltas y se cancelan directamente. Si el creador considera que se ha producido un error, puede apelar todas las faltas y cancelaciones para que nuestros equipos vuelvan a revisar la decisión. Recursos Más información sobre las faltas por incumplimiento de las Normas de la Comunidad Apelar una falta por incumplimiento de las Normas de la Comunidad Contenido con restricción de edad Algunos tipos de contenido no infringen nuestras políticas, pero es posible que no sean adecuados para menores de 18 años. En esos casos, nuestro equipo de revisión aplica una restricción de edad al vídeo en cuestión para que no sea visible entre la audiencia menor de 18 años, los usuarios que no hayan iniciado sesión ni los que tengan habilitado el modo restringido. Los creadores también pueden aplicar restricciones de edad a su contenido al subirlo si consideran que no es adecuado para una audiencia más joven. Recursos Más información sobre el contenido con restricción de edad Artículos relacionados Progreso en la gestión del contenido dañino Más información Retiradas de contenido por motivos legales"
press, "YouTube for Press Skip to Main Content News &amp; Events Creator &amp; Artist Stories Culture &amp; Trends Inside YouTube Submit Search Search Input YouTube for Press Quickly find the stats, photos and videos you’re looking for, along with guidelines for crediting and broadcasting them.For any additional press inquiries, contact press@google.com Popular articles Feb. 23, 2021 Creator Voices: Evelyn from the Internets Feb. 17, 2021 Investing to empower the YouTube experience for the next generation of video Feb. 8, 2022 Chess + comedy: a double act in India Feb. 5, 2021 ‘This is so embarrassing’: Bailey Sarian reacts to her old YouTube videos YouTube by the numbers YouTube has over 2 billion monthly logged-in users And every day, people watch over a billion hours of video and generate billions of views YouTube by the numbers 100+ countries around the world, across 80 languages There are localized versions of YouTube in over 100 countries around the world, across 80 languages YouTube by the numbers 500+ hours of content uploaded every minute More than 500 hours of content are uploaded to YouTube every minute 1 3 Gallery Filter by: All Topics Executives Gaming Go Kids Music Originals Premium Shorts Studio TV VR YouTube logo YouTube Space - Rio Clear All Loading... Load More More brand resources Access the logos, icons, color palettes and guidelines that help inform the YouTube brand. Visit Non-commercial use of YouTube videos in the pressOwnership and creditYouTube channel owners control the rights to the content displayed on the site. We encourage you to reach out to them directly if you find a video you&#39;d like to display and/or reference. When displaying a YouTube video in a broadcast or webcast, please provide both in-screen and verbal attribution by showing the username or real name of the applicable content owner.Contacting a YouTube channel ownerClicking on a YouTube username will take you to the main page of the user&#39;s channel. From there, you can use YouTube&#39;s on-site messaging system to contact the channel owner as long as you are logged into your own Google account. Simply click on the “About” tab, then select “Send Message” and fill out the electronic form. Spotlight Play button Play button icon Play button Play button icon Race to Equality A Roundtable Discussion on Racial Justice in the Music Industry Play button Play button icon Play button Play button icon YouTube Kids Back to School PSA 2020 A back to school message for you Play button Play button icon Play button Play button icon Easton LaChappelle’s Story Advancing affordable and accessible prosthetics Play button Play button icon Play button Play button icon Tay Nelson’s Story A recipe for success In the news Jan. 26, 2021 Rolling Stone Inside ‘The Show,’ Blackpink’s First-Ever Livestream Concert Jan. 14, 2021 LA TIMES ‘Demi Lovato: Dancing With the Devil’ will open first virtual SXSW Film Festival Dec. 30, 2020 New York Times How to Stream New Year’s Eve: 25 Shows From Pop, Jazz and Beyond Dec. 14, 2020 The Verge Baby Boomers Became YouTube Creators in a Big Way in 2020 Dec. 10, 2020 CNN The &#39;Japanese Bob Ross&#39;: How a 73-year-old artist took YouTube by storm Contact us For up-to-date stats and additional press inquiries, contact press@google.comOnly members of the press will receive a response. For all other inquiries, visit our Help Center. Images on this page may be used for publication with credit: &quot;Source: YouTube.&quot; Explore the latest company news, creator and artist profiles, culture and trends analyses, and behind-the-scenes insights on the YouTube Official Blog. Our Channels Open Open Accordeon Close close Accordeon YouTube YouTube Creators Creator Insider TeamYouTube [Help] Susan Wojcicki Twitter Open Open Accordeon Close close Accordeon YouTube YouTube Creators TeamYouTube YouTube Gaming YouTube TV YouTube Music YouTubeInsider Connect About YouTube Open Open Accordeon Close close Accordeon About Press Jobs How YouTube Works YouTube Culture &amp; Trends Community Forum YouTube Products Open Open Accordeon Close close Accordeon YouTube Go YouTube Kids YouTube Music YouTube Originals YouTube Premium YouTube Studio YouTube TV For Business Open Open Accordeon Close close Accordeon Advertising Developers For Creators Open Open Accordeon Close close Accordeon Artists Creators Creator Academy Creating for Kids Creators Research Creators Services Directory YouTube NextUp YouTube Space YouTube VR Our Commitments Open Open Accordeon Close close Accordeon Creators for Change CSAI Match Social Impact Logo YouTube Logo Policy &amp; Safety Copyright Brand Guidelines Privacy Terms Question Mark Question Mark Icon Help English Deutsch Português (Brasil) Español (Latinoamérica) Picker Picker"